{
	"info": {
		"_postman_id": "350527e9-f29a-44f4-8f4b-8d34db5a9889",
		"name": "Go-Template",
		"schema": "https://schema.getpostman.com/json/collection/v2.1.0/collection.json"
	},
	"item": [
		{
			"name": "New Folder",
			"item": [
				{
					"name": "Category - Create",
					"request": {
						"method": "POST",
						"header": [
							{
								"key": "X-API-KEY",
								"value": "Rahasia",
								"type": "text"
							}
						],
						"body": {
							"mode": "raw",
							"raw": "{\n    \"name\":\"\"\n}"
						},
						"url": {
							"raw": "localhost:3000/api/categories",
							"host": [
								"localhost"
							],
							"port": "3000",
							"path": [
								"api",
								"categories"
							]
						}
					},
					"response": []
				},
				{
					"name": "Category - UPdate",
					"request": {
						"method": "PUT",
						"header": [
							{
								"key": "X-API-KEY",
								"value": "Rahasia",
								"type": "text"
							}
						],
						"body": {
							"mode": "raw",
							"raw": "{\n    \"name\":\"Computer2\"\n}"
						},
						"url": {
							"raw": "localhost:3000/api/categories/2",
							"host": [
								"localhost"
							],
							"port": "3000",
							"path": [
								"api",
								"categories",
								"2"
							]
						}
					},
					"response": []
				},
				{
					"name": "Category - Delete",
					"request": {
						"method": "DELETE",
						"header": [
							{
								"key": "X-API-KEY",
								"value": "Rahasia",
								"type": "text"
							}
						],
						"url": {
							"raw": "localhost:3000/api/categories/1222",
							"host": [
								"localhost"
							],
							"port": "3000",
							"path": [
								"api",
								"categories",
								"1222"
							]
						}
					},
					"response": []
				},
				{
					"name": "Category - GetById",
					"request": {
						"method": "GET",
						"header": [],
						"url": {
							"raw": "localhost:3000/api/categories/20002?X-API-KEY=Rahasia",
							"host": [
								"localhost"
							],
							"port": "3000",
							"path": [
								"api",
								"categories",
								"20002"
							],
							"query": [
								{
									"key": "X-API-KEY",
									"value": "Rahasia"
								}
							]
						}
					},
					"response": []
				},
				{
					"name": "Category - Get All",
					"request": {
						"method": "GET",
						"header": [
							{
								"key": "X-API-KEY",
								"value": "Rahasia",
								"type": "text"
							}
						],
						"url": {
							"raw": "localhost:3000/api/categories",
							"host": [
								"localhost"
							],
							"port": "3000",
							"path": [
								"api",
								"categories"
							]
						}
					},
					"response": []
				}
			]
		},
		{
			"name": "Customer",
			"item": [
				{
					"name": "Customer - GetAll",
					"request": {
						"method": "GET",
						"header": [
							{
								"key": "X-API-KEY",
								"value": "Rahasia",
								"type": "text"
							}
						],
						"url": {
							"raw": "localhost:3000/api/customer",
							"host": [
								"localhost"
							],
							"port": "3000",
							"path": [
								"api",
								"customer"
							]
						}
					},
					"response": []
				},
				{
					"name": "Customer - GetAll Copy",
					"request": {
						"method": "GET",
						"header": [
							{
								"key": "X-API-KEY",
								"value": "Rahasia",
								"type": "text"
							}
						],
						"url": {
							"raw": "localhost:3000/api/customer",
							"host": [
								"localhost"
							],
							"port": "3000",
							"path": [
								"api",
								"customer"
							]
						}
					},
					"response": []
				},
				{
					"name": "Customer - Create",
					"request": {
						"method": "POST",
						"header": [
							{
								"key": "X-API-KEY",
								"value": "Rahasia",
								"type": "text"
							}
						],
						"body": {
							"mode": "raw",
							"raw": "{\n    \"name\":\"\"\n}"
						},
						"url": {
							"raw": "localhost:3000/api/customer",
							"host": [
								"localhost"
							],
							"port": "3000",
							"path": [
								"api",
								"customer"
							]
						}
					},
					"response": []
				},
				{
					"name": "Customer - Update",
					"request": {
						"method": "PUT",
						"header": [
							{
								"key": "X-API-KEY",
								"value": "Rahasia",
								"type": "text"
							}
						],
						"body": {
							"mode": "raw",
							"raw": "{\n    \"name\":\"diding\",\n    \"email\":\"didng@sds.cdd\"\n}"
						},
						"url": {
							"raw": "localhost:3000/api/customer/1",
							"host": [
								"localhost"
							],
							"port": "3000",
							"path": [
								"api",
								"customer",
								"1"
							]
						}
					},
					"response": []
				},
				{
					"name": "Customer - Delete",
					"request": {
						"method": "DELETE",
						"header": [
							{
								"key": "X-API-KEY",
								"value": "Rahasia",
								"type": "text"
							}
						],
						"url": {
							"raw": "localhost:3000/api/customer/1",
							"host": [
								"localhost"
							],
							"port": "3000",
							"path": [
								"api",
								"customer",
								"1"
							]
						}
					},
					"response": []
				},
				{
					"name": "Category - GetById",
					"request": {
						"method": "GET",
						"header": [
							{
								"key": "X-API-KEY",
								"value": "Rahasia",
								"type": "text"
							}
						],
						"url": {
							"raw": "localhost:3000/api/customer/1",
							"host": [
								"localhost"
							],
							"port": "3000",
							"path": [
								"api",
								"customer",
								"1"
							]
						}
					},
					"response": []
				}
			]
		}
	]
}